test.vcd
$date
	Fri Nov 29 21:37:48 2019
$end
$version
	Icarus Verilog
$end
$timescale
	1s
$end
$scope module main $end
$var wire 1 ! branchAndZero $end
$var wire 32 " signExtendOut [31:0] $end
$var wire 1 # regWriteEnable $end
$var wire 32 $ regWriteData [31:0] $end
$var wire 5 % regWriteAddress [4:0] $end
$var wire 1 & regDst $end
$var wire 32 ' readData2 [31:0] $end
$var wire 32 ( readData1 [31:0] $end
$var wire 1 ) memToReg $end
$var wire 1 * jumpEnable $end
$var wire 32 + jumpAddress [31:0] $end
$var wire 1 , dataMemWriteEnable $end
$var wire 1 - dataMemReadEnable $end
$var wire 32 . dataMemOut [31:0] $end
$var wire 32 / branchpc [31:0] $end
$var wire 32 0 branchaddress [31:0] $end
$var wire 32 1 branchMuxOut [31:0] $end
$var wire 1 2 branchEnable $end
$var wire 1 3 aluZero $end
$var wire 1 4 aluSrc $end
$var wire 32 5 aluSecondInput [31:0] $end
$var wire 32 6 aluOut [31:0] $end
$var wire 2 7 aluOp [1:0] $end
$var wire 3 8 aluControl3bit [2:0] $end
$var wire 32 9 PCplusFour [31:0] $end
$var wire 32 : PCOut [31:0] $end
$var wire 32 ; PCIn [31:0] $end
$var wire 1 < PCEnable $end
$var wire 32 = IMemOut [31:0] $end
$var reg 32 > change [31:0] $end
$var reg 1 ? clk $end
$scope module PCPlusFourAdder $end
$var wire 32 @ B [31:0] $end
$var wire 1 ? clk $end
$var wire 32 A A [31:0] $end
$var reg 32 B out [31:0] $end
$upscope $end
$scope module aluController $end
$var wire 6 C fn [0:5] $end
$var wire 2 D aluop [0:1] $end
$var reg 3 E out [0:2] $end
$upscope $end
$scope module branchAddressAdder $end
$var wire 32 F B [31:0] $end
$var wire 32 G out [31:0] $end
$var wire 32 H A [31:0] $end
$upscope $end
$scope module branchMux $end
$var wire 32 I A [31:0] $end
$var wire 32 J B [31:0] $end
$var wire 1 ! select $end
$var wire 32 K out [31:0] $end
$upscope $end
$scope module branchleftshift $end
$var wire 32 L in [31:0] $end
$var reg 32 M out [31:0] $end
$upscope $end
$scope module controlUnit $end
$var wire 1 ? clk $end
$var wire 6 N opcode [5:0] $end
$var reg 2 O aluop [1:0] $end
$var reg 1 4 alusrc $end
$var reg 1 2 branch $end
$var reg 1 * jump $end
$var reg 1 - memread $end
$var reg 1 ) memtoreg $end
$var reg 1 , memwrite $end
$var reg 1 < pcupdate $end
$var reg 1 & regdst $end
$var reg 1 # regwrite $end
$var integer 32 P counter [31:0] $end
$upscope $end
$scope module dataMem $end
$var wire 1 ? clk $end
$var wire 1 - readPin $end
$var wire 1 , writePin $end
$var wire 32 Q writeIn [31:0] $end
$var wire 32 R adr [31:0] $end
$var reg 32 S readOut [31:0] $end
$var integer 32 T file [31:0] $end
$var integer 32 U i [31:0] $end
$upscope $end
$scope module dataMemMux $end
$var wire 32 V B [31:0] $end
$var wire 1 ) select $end
$var wire 32 W out [31:0] $end
$var wire 32 X A [31:0] $end
$upscope $end
$scope module instructionMemory $end
$var wire 1 ? clk $end
$var wire 32 Y address [31:0] $end
$var reg 32 Z instruction [31:0] $end
$upscope $end
$scope module jumpMux $end
$var wire 32 [ A [31:0] $end
$var wire 32 \ B [31:0] $end
$var wire 1 * select $end
$var wire 32 ] out [31:0] $end
$upscope $end
$scope module mainALU $end
$var wire 1 ? clk $end
$var wire 3 ^ control [0:2] $end
$var wire 32 _ in2 [0:31] $end
$var wire 32 ` in1 [0:31] $end
$var reg 32 a out [0:31] $end
$var reg 1 3 zero $end
$upscope $end
$scope module postRegisterMux $end
$var wire 1 4 select $end
$var wire 32 b out [31:0] $end
$var wire 32 c B [31:0] $end
$var wire 32 d A [31:0] $end
$upscope $end
$scope module preRegisterMux $end
$var wire 5 e A [4:0] $end
$var wire 5 f B [4:0] $end
$var wire 1 & select $end
$var wire 5 g out [4:0] $end
$upscope $end
$scope module programCounter $end
$var wire 1 ? clk $end
$var wire 32 h memLoc [31:0] $end
$var wire 1 < outputEnable $end
$var reg 32 i currentPointer [31:0] $end
$upscope $end
$scope module registerFile $end
$var wire 1 ? clk $end
$var wire 5 j readRegister1 [4:0] $end
$var wire 5 k readRegister2 [4:0] $end
$var wire 1 # regWrite $end
$var wire 32 l writeData [31:0] $end
$var wire 5 m writeRegister [4:0] $end
$var reg 32 n readData1 [31:0] $end
$var reg 32 o readData2 [31:0] $end
$var integer 32 p i [31:0] $end
$upscope $end
$scope module signExtend $end
$var wire 16 q in [15:0] $end
$var reg 32 r out [31:0] $end
$upscope $end
$upscope $end
$enddefinitions $end
#0
$dumpvars
b11111111111111111111111111111111 r
b1111111111111111 q
b100000 p
bx o
bx n
b11111 m
bx l
b11111 k
b11111 j
b0 i
bx h
b11111 g
b11111 f
b11111 e
bx d
b11111111111111111111111111111111 c
bx b
bx a
bx `
bx _
b101 ^
bx ]
bx0011111111111111111111111111 \
bx [
b1111111111111111111111111111111 Z
b0 Y
bx X
bx W
bx V
bx U
bx T
bx S
bx R
bx Q
b0 P
b11 O
b11111 N
b11111111111111111111111111111111 M
b11111111111111111111111111111111 L
bx K
bx J
bx I
b11111111111111111111111111111111 H
bx G
bx F
b101 E
b11 D
b111111 C
bx B
b0 A
b1 @
0?
b1 >
b1111111111111111111111111111111 =
0<
bx ;
b0 :
bx 9
b101 8
b11 7
bx 6
bx 5
04
x3
02
bx 1
b11111111111111111111111111111111 0
bx /
bx .
0-
0,
bx0011111111111111111111111111 +
0*
0)
bx (
bx '
0&
b11111 %
bx $
0#
b11111111111111111111111111111111 "
0!
$end
#5
b0 5
b0 _
b0 b
b0 '
b0 Q
b0 d
b0 o
b0 (
b0 `
b0 n
b1 ;
b1 ]
b1 h
b1 1
b1 K
b1 [
b11111111111111111111111111 +
b11111111111111111111111111 \
03
b0 /
b0 G
b0 J
b1 9
b1 B
b1 F
b1 I
b1 P
1?
#10
0?
#15
b10 P
1?
#20
0?
#25
b11 P
1?
#30
0?
#35
b1 /
b1 G
b1 J
b0 0
b0 H
b0 M
b0 "
b0 L
b0 c
b0 r
b0 %
b0 g
b0 m
b100011 N
b0 +
b0 \
b0 C
b0 q
b0 k
b0 j
b0 f
b0 e
b10001100000000000000000000000000 =
b10001100000000000000000000000000 Z
b1 :
b1 A
b1 Y
b1 i
1<
b100 P
1?
#40
0?
#45
b10 ;
b10 ]
b10 h
b10 1
b10 K
b10 [
b10 8
b10 E
b10 ^
b10 /
b10 G
b10 J
b10 9
b10 B
b10 F
b10 I
14
b0 7
b0 D
b0 O
b0 P
0<
1?
#50
0?
#55
b0 $
b0 W
b0 l
b1 P
13
b0 6
b0 R
b0 X
b0 a
1?
#60
0?
#65
b111 .
b111 S
b111 V
1-
b10 P
1?
#70
0?
#75
b111 $
b111 W
b111 l
1)
1#
b11 P
1?
#80
0?
#85
b111 5
b111 _
b111 b
b111 '
b111 Q
b111 d
b111 o
b111 (
b111 `
b111 n
b1 /
b1 G
b1 J
b11111111111111111111111111111111 0
b11111111111111111111111111111111 H
b11111111111111111111111111111111 M
b11111111111111111111111111111111 "
b11111111111111111111111111111111 L
b11111111111111111111111111111111 c
b11111111111111111111111111111111 r
b1 %
b1 g
b1 m
b1000 N
b11111111111111111 +
b11111111111111111 \
b111111 C
b1111111111111111 q
b1 k
b11111 f
b1 e
b100000000000011111111111111111 =
b100000000000011111111111111111 Z
b0 $
b0 W
b0 l
b101 8
b101 E
b101 ^
b10 :
b10 A
b10 Y
b10 i
0#
0)
0-
04
b11 7
b11 D
b11 O
1<
b100 P
1?
#90
0?
#95
b0 '
b0 Q
b0 d
b0 o
b11 ;
b11 ]
b11 h
b11111111111111111111111111111111 5
b11111111111111111111111111111111 _
b11111111111111111111111111111111 b
b10 8
b10 E
b10 ^
b11 1
b11 K
b11 [
14
b0 7
b0 D
b0 O
b0 P
0<
b10 /
b10 G
b10 J
b11 9
b11 B
b11 F
b11 I
1?
#100
0?
#105
b110 $
b110 W
b110 l
03
b110 6
b110 R
b110 X
b110 a
b1 P
1?
#110
0?
#115
b10 P
1?
#120
0?
#125
1#
b11 P
1?
#130
0?
#135
b110 '
b110 Q
b110 d
b110 o
b11 /
b11 G
b11 J
b0 0
b0 H
b0 M
b0 "
b0 L
b0 c
b0 r
b1001 %
b1001 g
b1001 m
b10010000000000000000 +
b10010000000000000000 \
b0 C
b0 q
b1001 k
b0 f
b1001 e
b100000000010010000000000000000 =
b100000000010010000000000000000 Z
b110 5
b110 _
b110 b
b101 8
b101 E
b101 ^
b11 :
b11 A
b11 Y
b11 i
0#
04
b11 7
b11 D
b11 O
1<
b100 P
1?
#140
0?
#145
b0 '
b0 Q
b0 d
b0 o
b100 ;
b100 ]
b100 h
b100 1
b100 K
b100 [
b0 5
b0 _
b0 b
b10 8
b10 E
b10 ^
b100 /
b100 G
b100 J
b100 9
b100 B
b100 F
b100 I
14
b0 7
b0 D
b0 O
b0 P
0<
1?
#150
0?
#155
b111 $
b111 W
b111 l
b1 P
b111 6
b111 R
b111 X
b111 a
1?
#160
0?
#165
b10 P
1?
#170
0?
#175
1#
b11 P
1?
#180
0?
#185
b111 5
b111 _
b111 b
b111 '
b111 Q
b111 d
b111 o
b1000 %
b1000 g
b1000 m
b1010000000000000000000 +
b1010000000000000000000 \
b1000 k
b1 j
b1000 e
b100000001010000000000000000000 =
b100000001010000000000000000000 Z
b101 8
b101 E
b101 ^
b100 :
b100 A
b100 Y
b100 i
0#
04
b11 7
b11 D
b11 O
1<
b100 P
1?
#190
0?
#195
b0 '
b0 Q
b0 d
b0 o
b110 (
b110 `
b110 n
b101 ;
b101 ]
b101 h
b0 5
b0 _
b0 b
b10 8
b10 E
b10 ^
b101 1
b101 K
b101 [
14
b0 7
b0 D
b0 O
b0 P
0<
b101 /
b101 G
b101 J
b101 9
b101 B
b101 F
b101 I
1?
#200
0?
#205
b110 $
b110 W
b110 l
b110 6
b110 R
b110 X
b110 a
b1 P
1?
#210
0?
#215
b10 P
1?
#220
0?
#225
1#
b11 P
1?
#230
0?
#235
b110 5
b110 _
b110 b
b110 '
b110 Q
b110 d
b110 o
b10 %
b10 g
b10 m
b100000100000000000000000 +
b100000100000000000000000 \
b10 k
b100 j
b10 e
b100000100000100000000000000000 =
b100000100000100000000000000000 Z
b101 8
b101 E
b101 ^
b101 :
b101 A
b101 Y
b101 i
0#
04
b11 7
b11 D
b11 O
1<
b100 P
1?
#240
0?
#245
b0 '
b0 Q
b0 d
b0 o
b0 (
b0 `
b0 n
b110 ;
b110 ]
b110 h
b110 1
b110 K
b110 [
b0 5
b0 _
b0 b
b10 8
b10 E
b10 ^
b110 /
b110 G
b110 J
b110 9
b110 B
b110 F
b110 I
14
b0 7
b0 D
b0 O
b0 P
0<
1?
#250
0?
#255
b0 $
b0 W
b0 l
b1 P
13
b0 6
b0 R
b0 X
b0 a
1?
#260
0?
#265
b10 P
1?
#270
0?
#275
1#
b11 P
1?
#280
0?
#285
b1111 /
b1111 G
b1111 J
b1001 0
b1001 H
b1001 M
b1001 "
b1001 L
b1001 c
b1001 r
b100 %
b100 g
b100 m
b100 N
b1000001000000000000001001 +
b1000001000000000000001001 \
b1001 C
b1001 q
b100 k
b1000 j
b100 e
b10001000001000000000000001001 =
b10001000001000000000000001001 Z
b101 8
b101 E
b101 ^
b110 :
b110 A
b110 Y
b110 i
0#
04
b11 7
b11 D
b11 O
1<
b100 P
1?
#290
0?
#295
b110 (
b110 `
b110 n
b10000 ;
b10000 ]
b10000 h
1!
b11 8
b11 E
b11 ^
b10000 1
b10000 K
b10000 [
12
b1 7
b1 D
b1 O
b0 P
0<
b10000 /
b10000 G
b10000 J
b111 9
b111 B
b111 F
b111 I
1?
#300
0?
#305
b111 ;
b111 ]
b111 h
b111 1
b111 K
b111 [
0!
b110 $
b110 W
b110 l
03
b110 6
b110 R
b110 X
b110 a
b1 P
1?
#310
0?
#315
b10 P
1?
#320
0?
#325
b11 P
1?
#330
0?
#335
b1010 /
b1010 G
b1010 J
b11 0
b11 H
b11 M
b11 "
b11 L
b11 c
b11 r
b1001000000000000000011 +
b1001000000000000000011 \
b11 C
b11 q
b1 j
b10000001001000000000000000011 =
b10000001001000000000000000011 Z
b101 8
b101 E
b101 ^
b111 :
b111 A
b111 Y
b111 i
b11 7
b11 D
b11 O
02
1<
b100 P
1?
#340
0?
#345
b1000 ;
b1000 ]
b1000 h
b1000 1
b1000 K
b1000 [
b11 8
b11 E
b11 ^
b1011 /
b1011 G
b1011 J
b1000 9
b1000 B
b1000 F
b1000 I
12
b1 7
b1 D
b1 O
b0 P
0<
1?
#350
0?
#355
b1 P
1?
#360
0?
#365
b10 P
1?
#370
0?
#375
b11 P
1?
#380
0?
#385
b1000000101000 /
b1000000101000 G
b1000000101000 J
b1000000100000 0
b1000000100000 H
b1000000100000 M
b1000000100000 "
b1000000100000 L
b1000000100000 c
b1000000100000 r
b10 %
b10 g
b10 m
b0 N
b1001000100001000000100000 +
b1001000100001000000100000 \
b100000 C
b1000000100000 q
b10 k
b1001 j
b10 f
b10 e
b1001000100001000000100000 =
b1001000100001000000100000 Z
b101 8
b101 E
b101 ^
b1000 :
b1000 A
b1000 Y
b1000 i
b11 7
b11 D
b11 O
02
1<
b100 P
1?
#390
0?
#395
b111 (
b111 `
b111 n
b1001 ;
b1001 ]
b1001 h
b10 8
b10 E
b10 ^
b1001 1
b1001 K
b1001 [
b10 7
b10 D
b10 O
b0 P
0<
b1000000101001 /
b1000000101001 G
b1000000101001 J
b1001 9
b1001 B
b1001 F
b1001 I
1?
#400
0?
#405
b111 $
b111 W
b111 l
b111 6
b111 R
b111 X
b111 a
b1 P
1?
#410
0?
#415
b10 P
1?
#420
0?
#425
1&
1#
b11 P
1?
#430
0?
#435
b111 5
b111 _
b111 b
b111 '
b111 Q
b111 d
b111 o
b1000 /
b1000 G
b1000 J
b11111111111111111111111111111111 0
b11111111111111111111111111111111 H
b11111111111111111111111111111111 M
b11111111111111111111111111111111 "
b11111111111111111111111111111111 L
b11111111111111111111111111111111 c
b11111111111111111111111111111111 r
b1 %
b1 g
b1 m
b1000 N
b1000011111111111111111 +
b1000011111111111111111 \
b111111 C
b1111111111111111 q
b1 k
b1 j
b11111 f
b1 e
b100000001000011111111111111111 =
b100000001000011111111111111111 Z
b101 8
b101 E
b101 ^
b1001 :
b1001 A
b1001 Y
b1001 i
0&
0#
b11 7
b11 D
b11 O
1<
b100 P
1?
#440
0?
#445
b110 '
b110 Q
b110 d
b110 o
b110 (
b110 `
b110 n
b1010 ;
b1010 ]
b1010 h
b1010 1
b1010 K
b1010 [
b11111111111111111111111111111111 5
b11111111111111111111111111111111 _
b11111111111111111111111111111111 b
b10 8
b10 E
b10 ^
b1001 /
b1001 G
b1001 J
b1010 9
b1010 B
b1010 F
b1010 I
14
b0 7
b0 D
b0 O
b0 P
0<
1?
#450
0?
#455
b101 $
b101 W
b101 l
b1 P
b101 6
b101 R
b101 X
b101 a
1?
#460
0?
#465
b10 P
1?
#470
0?
#475
1#
b11 P
1?
#480
0?
#485
b101 '
b101 Q
b101 d
b101 o
b101 (
b101 `
b101 n
b10001 /
b10001 G
b10001 J
b111 0
b111 H
b111 M
b111 "
b111 L
b111 c
b111 r
b0 %
b0 g
b0 m
b10 N
b111 +
b111 \
b111 C
b111 q
b0 k
b0 j
b0 f
b0 e
b1000000000000000000000000111 =
b1000000000000000000000000111 Z
b101 5
b101 _
b101 b
b101 8
b101 E
b101 ^
b1010 :
b1010 A
b1010 Y
b1010 i
0#
04
b11 7
b11 D
b11 O
1<
b100 P
1?
#490
0?
#495
b111 5
b111 _
b111 b
b111 '
b111 Q
b111 d
b111 o
b111 (
b111 `
b111 n
b111 ;
b111 ]
b111 h
b10 8
b10 E
b10 ^
b1011 1
b1011 K
b1011 [
1*
b0 7
b0 D
b0 O
b0 P
0<
b10010 /
b10010 G
b10010 J
b1011 9
b1011 B
b1011 F
b1011 I
1?
#500
0?
#505
b1110 $
b1110 W
b1110 l
b1110 6
b1110 R
b1110 X
b1110 a
b1 P
1?
#510
0?
#515
b10 P
1?
#520
0?
#525
b11 P
1?
#530
0?
#535
b1110 /
b1110 G
b1110 J
b11 0
b11 H
b11 M
b11 "
b11 L
b11 c
b11 r
b100 %
b100 g
b100 m
b100 N
b1001000000000000000011 +
b1001000000000000000011 \
b11 C
b11 q
b100 k
b1 j
b100 e
b10000001001000000000000000011 =
b10000001001000000000000000011 Z
b101 8
b101 E
b101 ^
b1011 ;
b1011 ]
b1011 h
b111 :
b111 A
b111 Y
b111 i
b11 7
b11 D
b11 O
0*
1<
b100 P
1?
#540
0?
#545
b0 5
b0 _
b0 b
b0 '
b0 Q
b0 d
b0 o
b101 (
b101 `
b101 n
b1000 ;
b1000 ]
b1000 h
b1000 1
b1000 K
b1000 [
b11 8
b11 E
b11 ^
b1011 /
b1011 G
b1011 J
b1000 9
b1000 B
b1000 F
b1000 I
12
b1 7
b1 D
b1 O
b0 P
0<
1?
#550
0?
#555
b101 $
b101 W
b101 l
b1 P
b101 6
b101 R
b101 X
b101 a
1?
#560
0?
#565
b10 P
1?
#570
0?
#575
b11 P
1?
#580
0?
#585
b1000000101000 /
b1000000101000 G
b1000000101000 J
b1000000100000 0
b1000000100000 H
b1000000100000 M
b1000000100000 "
b1000000100000 L
b1000000100000 c
b1000000100000 r
b10 %
b10 g
b10 m
b0 N
b1001000100001000000100000 +
b1001000100001000000100000 \
b100000 C
b1000000100000 q
b10 k
b1001 j
b10 f
b10 e
b1001000100001000000100000 =
b1001000100001000000100000 Z
b101 8
b101 E
b101 ^
b1000 :
b1000 A
b1000 Y
b1000 i
b11 7
b11 D
b11 O
02
1<
b100 P
1?
#590
0?
#595
b111 5
b111 _
b111 b
b111 '
b111 Q
b111 d
b111 o
b111 (
b111 `
b111 n
b1001 ;
b1001 ]
b1001 h
b10 8
b10 E
b10 ^
b1001 1
b1001 K
b1001 [
b10 7
b10 D
b10 O
b0 P
0<
b1000000101001 /
b1000000101001 G
b1000000101001 J
b1001 9
b1001 B
b1001 F
b1001 I
1?
#600
0?
#605
b1110 $
b1110 W
b1110 l
b1110 6
b1110 R
b1110 X
b1110 a
b1 P
1?
#610
0?
#615
b10 P
1?
#620
0?
#625
1&
1#
b11 P
1?
#630
0?
#635
b1110 5
b1110 _
b1110 b
b1110 '
b1110 Q
b1110 d
b1110 o
b1000 /
b1000 G
b1000 J
b11111111111111111111111111111111 0
b11111111111111111111111111111111 H
b11111111111111111111111111111111 M
b11111111111111111111111111111111 "
b11111111111111111111111111111111 L
b11111111111111111111111111111111 c
b11111111111111111111111111111111 r
b1 %
b1 g
b1 m
b1000 N
b1000011111111111111111 +
b1000011111111111111111 \
b111111 C
b1111111111111111 q
b1 k
b1 j
b11111 f
b1 e
b100000001000011111111111111111 =
b100000001000011111111111111111 Z
b101 8
b101 E
b101 ^
b1001 :
b1001 A
b1001 Y
b1001 i
0&
0#
b11 7
b11 D
b11 O
1<
b100 P
1?
#640
0?
#645
b101 '
b101 Q
b101 d
b101 o
b101 (
b101 `
b101 n
b1010 ;
b1010 ]
b1010 h
b1010 1
b1010 K
b1010 [
b11111111111111111111111111111111 5
b11111111111111111111111111111111 _
b11111111111111111111111111111111 b
b10 8
b10 E
b10 ^
b1001 /
b1001 G
b1001 J
b1010 9
b1010 B
b1010 F
b1010 I
14
b0 7
b0 D
b0 O
b0 P
0<
1?
#650
0?
#655
b100 $
b100 W
b100 l
b1 P
b100 6
b100 R
b100 X
b100 a
1?
#660
0?
#665
b10 P
1?
#670
0?
#675
1#
b11 P
1?
#680
0?
#685
b100 '
b100 Q
b100 d
b100 o
b100 (
b100 `
b100 n
b10001 /
b10001 G
b10001 J
b111 0
b111 H
b111 M
b111 "
b111 L
b111 c
b111 r
b0 %
b0 g
b0 m
b10 N
b111 +
b111 \
b111 C
b111 q
b0 k
b0 j
b0 f
b0 e
b1000000000000000000000000111 =
b1000000000000000000000000111 Z
b100 5
b100 _
b100 b
b101 8
b101 E
b101 ^
b1010 :
b1010 A
b1010 Y
b1010 i
0#
04
b11 7
b11 D
b11 O
1<
b100 P
1?
#690
0?
#695
b111 5
b111 _
b111 b
b111 '
b111 Q
b111 d
b111 o
b111 (
b111 `
b111 n
b111 ;
b111 ]
b111 h
b10 8
b10 E
b10 ^
b1011 1
b1011 K
b1011 [
1*
b0 7
b0 D
b0 O
b0 P
0<
b10010 /
b10010 G
b10010 J
b1011 9
b1011 B
b1011 F
b1011 I
1?
#700
0?
#705
b1110 $
b1110 W
b1110 l
b1110 6
b1110 R
b1110 X
b1110 a
b1 P
1?
#710
0?
#715
b10 P
1?
#720
0?
#725
b11 P
1?
#730
0?
#735
b1110 /
b1110 G
b1110 J
b11 0
b11 H
b11 M
b11 "
b11 L
b11 c
b11 r
b100 %
b100 g
b100 m
b100 N
b1001000000000000000011 +
b1001000000000000000011 \
b11 C
b11 q
b100 k
b1 j
b100 e
b10000001001000000000000000011 =
b10000001001000000000000000011 Z
b101 8
b101 E
b101 ^
b1011 ;
b1011 ]
b1011 h
b111 :
b111 A
b111 Y
b111 i
b11 7
b11 D
b11 O
0*
1<
b100 P
1?
#740
0?
#745
b0 5
b0 _
b0 b
b0 '
b0 Q
b0 d
b0 o
b100 (
b100 `
b100 n
b1000 ;
b1000 ]
b1000 h
b1000 1
b1000 K
b1000 [
b11 8
b11 E
b11 ^
b1011 /
b1011 G
b1011 J
b1000 9
b1000 B
b1000 F
b1000 I
12
b1 7
b1 D
b1 O
b0 P
0<
1?
#750
0?
#755
b100 $
b100 W
b100 l
b1 P
b100 6
b100 R
b100 X
b100 a
1?
#760
0?
#765
b10 P
1?
#770
0?
#775
b11 P
1?
#780
0?
#785
b1000000101000 /
b1000000101000 G
b1000000101000 J
b1000000100000 0
b1000000100000 H
b1000000100000 M
b1000000100000 "
b1000000100000 L
b1000000100000 c
b1000000100000 r
b10 %
b10 g
b10 m
b0 N
b1001000100001000000100000 +
b1001000100001000000100000 \
b100000 C
b1000000100000 q
b10 k
b1001 j
b10 f
b10 e
b1001000100001000000100000 =
b1001000100001000000100000 Z
b101 8
b101 E
b101 ^
b1000 :
b1000 A
b1000 Y
b1000 i
b11 7
b11 D
b11 O
02
1<
b100 P
1?
#790
0?
#795
b1110 5
b1110 _
b1110 b
b1110 '
b1110 Q
b1110 d
b1110 o
b111 (
b111 `
b111 n
b1001 ;
b1001 ]
b1001 h
b10 8
b10 E
b10 ^
b1001 1
b1001 K
b1001 [
b10 7
b10 D
b10 O
b0 P
0<
b1000000101001 /
b1000000101001 G
b1000000101001 J
b1001 9
b1001 B
b1001 F
b1001 I
1?
#800
0?
#805
b10101 $
b10101 W
b10101 l
b10101 6
b10101 R
b10101 X
b10101 a
b1 P
1?
#810
0?
#815
b10 P
1?
#820
0?
#825
1&
1#
b11 P
1?
#830
0?
#835
b10101 5
b10101 _
b10101 b
b10101 '
b10101 Q
b10101 d
b10101 o
b1000 /
b1000 G
b1000 J
b11111111111111111111111111111111 0
b11111111111111111111111111111111 H
b11111111111111111111111111111111 M
b11111111111111111111111111111111 "
b11111111111111111111111111111111 L
b11111111111111111111111111111111 c
b11111111111111111111111111111111 r
b1 %
b1 g
b1 m
b1000 N
b1000011111111111111111 +
b1000011111111111111111 \
b111111 C
b1111111111111111 q
b1 k
b1 j
b11111 f
b1 e
b100000001000011111111111111111 =
b100000001000011111111111111111 Z
b101 8
b101 E
b101 ^
b1001 :
b1001 A
b1001 Y
b1001 i
0&
0#
b11 7
b11 D
b11 O
1<
b100 P
1?
#840
0?
#845
b100 '
b100 Q
b100 d
b100 o
b100 (
b100 `
b100 n
b1010 ;
b1010 ]
b1010 h
b1010 1
b1010 K
b1010 [
b11111111111111111111111111111111 5
b11111111111111111111111111111111 _
b11111111111111111111111111111111 b
b10 8
b10 E
b10 ^
b1001 /
b1001 G
b1001 J
b1010 9
b1010 B
b1010 F
b1010 I
14
b0 7
b0 D
b0 O
b0 P
0<
1?
#850
0?
#855
b11 $
b11 W
b11 l
b1 P
b11 6
b11 R
b11 X
b11 a
1?
#860
0?
#865
b10 P
1?
#870
0?
#875
1#
b11 P
1?
#880
0?
#885
b11 '
b11 Q
b11 d
b11 o
b11 (
b11 `
b11 n
b10001 /
b10001 G
b10001 J
b111 0
b111 H
b111 M
b111 "
b111 L
b111 c
b111 r
b0 %
b0 g
b0 m
b10 N
b111 +
b111 \
b111 C
b111 q
b0 k
b0 j
b0 f
b0 e
b1000000000000000000000000111 =
b1000000000000000000000000111 Z
b11 5
b11 _
b11 b
b101 8
b101 E
b101 ^
b1010 :
b1010 A
b1010 Y
b1010 i
0#
04
b11 7
b11 D
b11 O
1<
b100 P
1?
#890
0?
#895
b111 5
b111 _
b111 b
b111 '
b111 Q
b111 d
b111 o
b111 (
b111 `
b111 n
b111 ;
b111 ]
b111 h
b10 8
b10 E
b10 ^
b1011 1
b1011 K
b1011 [
1*
b0 7
b0 D
b0 O
b0 P
0<
b10010 /
b10010 G
b10010 J
b1011 9
b1011 B
b1011 F
b1011 I
1?
#900
0?
#905
b1110 $
b1110 W
b1110 l
b1110 6
b1110 R
b1110 X
b1110 a
b1 P
1?
#910
0?
#915
b10 P
1?
#920
0?
#925
b11 P
1?
#930
0?
#935
b1110 /
b1110 G
b1110 J
b11 0
b11 H
b11 M
b11 "
b11 L
b11 c
b11 r
b100 %
b100 g
b100 m
b100 N
b1001000000000000000011 +
b1001000000000000000011 \
b11 C
b11 q
b100 k
b1 j
b100 e
b10000001001000000000000000011 =
b10000001001000000000000000011 Z
b101 8
b101 E
b101 ^
b1011 ;
b1011 ]
b1011 h
b111 :
b111 A
b111 Y
b111 i
b11 7
b11 D
b11 O
0*
1<
b100 P
1?
#940
0?
#945
b0 5
b0 _
b0 b
b0 '
b0 Q
b0 d
b0 o
b11 (
b11 `
b11 n
b1000 ;
b1000 ]
b1000 h
b1000 1
b1000 K
b1000 [
b11 8
b11 E
b11 ^
b1011 /
b1011 G
b1011 J
b1000 9
b1000 B
b1000 F
b1000 I
12
b1 7
b1 D
b1 O
b0 P
0<
1?
#950
0?
#955
b11 $
b11 W
b11 l
b1 P
b11 6
b11 R
b11 X
b11 a
1?
#960
0?
#965
b10 P
1?
#970
0?
#975
b11 P
1?
#980
0?
#985
b1000000101000 /
b1000000101000 G
b1000000101000 J
b1000000100000 0
b1000000100000 H
b1000000100000 M
b1000000100000 "
b1000000100000 L
b1000000100000 c
b1000000100000 r
b10 %
b10 g
b10 m
b0 N
b1001000100001000000100000 +
b1001000100001000000100000 \
b100000 C
b1000000100000 q
b10 k
b1001 j
b10 f
b10 e
b1001000100001000000100000 =
b1001000100001000000100000 Z
b101 8
b101 E
b101 ^
b1000 :
b1000 A
b1000 Y
b1000 i
b11 7
b11 D
b11 O
02
1<
b100 P
1?
#990
0?
#995
b10101 5
b10101 _
b10101 b
b10101 '
b10101 Q
b10101 d
b10101 o
b111 (
b111 `
b111 n
b1001 ;
b1001 ]
b1001 h
b10 8
b10 E
b10 ^
b1001 1
b1001 K
b1001 [
b10 7
b10 D
b10 O
b0 P
0<
b1000000101001 /
b1000000101001 G
b1000000101001 J
b1001 9
b1001 B
b1001 F
b1001 I
1?
#1000
0?
#1005
b11100 $
b11100 W
b11100 l
b11100 6
b11100 R
b11100 X
b11100 a
b1 P
1?
#1010
0?
#1015
b10 P
1?
#1020
0?
#1025
1&
1#
b11 P
1?
#1030
0?
#1035
b11100 5
b11100 _
b11100 b
b11100 '
b11100 Q
b11100 d
b11100 o
b1000 /
b1000 G
b1000 J
b11111111111111111111111111111111 0
b11111111111111111111111111111111 H
b11111111111111111111111111111111 M
b11111111111111111111111111111111 "
b11111111111111111111111111111111 L
b11111111111111111111111111111111 c
b11111111111111111111111111111111 r
b1 %
b1 g
b1 m
b1000 N
b1000011111111111111111 +
b1000011111111111111111 \
b111111 C
b1111111111111111 q
b1 k
b1 j
b11111 f
b1 e
b100000001000011111111111111111 =
b100000001000011111111111111111 Z
b101 8
b101 E
b101 ^
b1001 :
b1001 A
b1001 Y
b1001 i
0&
0#
b11 7
b11 D
b11 O
1<
b100 P
1?
#1040
0?
#1045
b11 '
b11 Q
b11 d
b11 o
b11 (
b11 `
b11 n
b1010 ;
b1010 ]
b1010 h
b1010 1
b1010 K
b1010 [
b11111111111111111111111111111111 5
b11111111111111111111111111111111 _
b11111111111111111111111111111111 b
b10 8
b10 E
b10 ^
b1001 /
b1001 G
b1001 J
b1010 9
b1010 B
b1010 F
b1010 I
14
b0 7
b0 D
b0 O
b0 P
0<
1?
#1050
0?
#1055
b10 $
b10 W
b10 l
b1 P
b10 6
b10 R
b10 X
b10 a
1?
#1060
0?
#1065
b10 P
1?
#1070
0?
#1075
1#
b11 P
1?
#1080
0?
#1085
b10 '
b10 Q
b10 d
b10 o
b10 (
b10 `
b10 n
b10001 /
b10001 G
b10001 J
b111 0
b111 H
b111 M
b111 "
b111 L
b111 c
b111 r
b0 %
b0 g
b0 m
b10 N
b111 +
b111 \
b111 C
b111 q
b0 k
b0 j
b0 f
b0 e
b1000000000000000000000000111 =
b1000000000000000000000000111 Z
b10 5
b10 _
b10 b
b101 8
b101 E
b101 ^
b1010 :
b1010 A
b1010 Y
b1010 i
0#
04
b11 7
b11 D
b11 O
1<
b100 P
1?
#1090
0?
#1095
b111 5
b111 _
b111 b
b111 '
b111 Q
b111 d
b111 o
b111 (
b111 `
b111 n
b111 ;
b111 ]
b111 h
b10 8
b10 E
b10 ^
b1011 1
b1011 K
b1011 [
1*
b0 7
b0 D
b0 O
b0 P
0<
b10010 /
b10010 G
b10010 J
b1011 9
b1011 B
b1011 F
b1011 I
1?
#1100
0?
#1105
b1110 $
b1110 W
b1110 l
b1110 6
b1110 R
b1110 X
b1110 a
b1 P
1?
